{
    "version": 1,
    "size": {
        "x": 32,
        "y": 32
    },
    "license": "CC-BY-SA-3.0",
    "copyright": "https://github.com/tgstation/tgstation/pull/1684/commits/19e51caef09e78ca1122d26455b539ff5968d334, https://github.com/tgstation/tgstation/blob/master/icons/obj/weapons/guns/ammo.dmi",
    "states": [
        {
            "name": "base"
        },
        {
            "name": "mag-1"
        },
        {
            "name": "mag-2"
        },
        {
            "name": "mag-3"
        },
        {
            "name": "mag-4"
        },
        {
            "name": "mag-5"

        },
		{
            "name": "mag-6"

        },
		{
            "name": "mag-7"

        }
    ]
}
