{
  "version": 1,
  "license": "CC-BY-SA-3.0",
  "copyright": "Made by Sadcmbt and lLJyt for VXStation14",
  "size": {
    "x": 32,
    "y": 32
  },
  "states": [
    {
      "name": "icon"
    }
  ]
}
